{
    "project_name":       "app-template",
    "project_path":       "/home/chris/git/esp32/esp32_help",
    "build_dir":          "/home/chris/git/esp32/esp32_help",
    "config_file":        "/home/chris/git/esp32/esp32_help/sdkconfig",
    "config_defaults":    "",
    "app_elf":            "app-template.elf",
    "app_bin":            "app-template.bin",
    "git_revision":       "v5.0-dev-595-g98ad01e5fc",
    "target":             "esp32",
    "rev":                "0",
    "phy_data_partition": "",
    "monitor_baud" :      "115200",
    "monitor_toolprefix": "xtensa-esp32s2-elf-",
    "config_environment" : {
        "COMPONENT_KCONFIGS" : "/home/chris/git/esp-idf/components/app_trace/Kconfig;/home/chris/git/esp-idf/components/asio/Kconfig;/home/chris/git/esp-idf/components/bt/Kconfig;/home/chris/git/esp-idf/components/coap/Kconfig;/home/chris/git/esp-idf/components/driver/Kconfig;/home/chris/git/esp-idf/components/efuse/Kconfig;/home/chris/git/esp-idf/components/esp-tls/Kconfig;/home/chris/git/esp-idf/components/esp32/Kconfig;/home/chris/git/esp-idf/components/esp_adc_cal/Kconfig;/home/chris/git/esp-idf/components/esp_common/Kconfig;/home/chris/git/esp-idf/components/esp_eth/Kconfig;/home/chris/git/esp-idf/components/esp_event/Kconfig;/home/chris/git/esp-idf/components/esp_gdbstub/Kconfig;/home/chris/git/esp-idf/components/esp_http_client/Kconfig;/home/chris/git/esp-idf/components/esp_http_server/Kconfig;/home/chris/git/esp-idf/components/esp_https_ota/Kconfig;/home/chris/git/esp-idf/components/esp_https_server/Kconfig;/home/chris/git/esp-idf/components/esp_hw_support/Kconfig;/home/chris/git/esp-idf/components/esp_lcd/Kconfig;/home/chris/git/esp-idf/components/esp_netif/Kconfig;/home/chris/git/esp-idf/components/esp_phy/Kconfig;/home/chris/git/esp-idf/components/esp_pm/Kconfig;/home/chris/git/esp-idf/components/esp_system/Kconfig;/home/chris/git/esp-idf/components/esp_timer/Kconfig;/home/chris/git/esp-idf/components/esp_wifi/Kconfig;/home/chris/git/esp-idf/components/espcoredump/Kconfig;/home/chris/git/esp-idf/components/fatfs/Kconfig;/home/chris/git/esp-idf/components/freemodbus/Kconfig;/home/chris/git/esp-idf/components/freertos/Kconfig;/home/chris/git/esp-idf/components/hal/Kconfig;/home/chris/git/esp-idf/components/heap/Kconfig;/home/chris/git/esp-idf/components/i2cdev/Kconfig;/home/chris/git/esp-idf/components/ieee802154/Kconfig;/home/chris/git/esp-idf/components/log/Kconfig;/home/chris/git/esp-idf/components/lwip/Kconfig;/home/chris/git/esp-idf/components/mbedtls/Kconfig;/home/chris/git/esp-idf/components/mdns/Kconfig;/home/chris/git/esp-idf/components/mqtt/Kconfig;/home/chris/git/esp-idf/components/newlib/Kconfig;/home/chris/git/esp-idf/components/nvs_flash/Kconfig;/home/chris/git/esp-idf/components/openssl/Kconfig;/home/chris/git/esp-idf/components/openthread/Kconfig;/home/chris/git/esp-idf/components/pthread/Kconfig;/home/chris/git/esp-idf/components/spi_flash/Kconfig;/home/chris/git/esp-idf/components/spiffs/Kconfig;/home/chris/git/esp-idf/components/tcp_transport/Kconfig;/home/chris/git/esp-idf/components/tinyusb/Kconfig;/home/chris/git/esp-idf/components/unity/Kconfig;/home/chris/git/esp-idf/components/usb/Kconfig;/home/chris/git/esp-idf/components/vfs/Kconfig;/home/chris/git/esp-idf/components/wear_levelling/Kconfig;/home/chris/git/esp-idf/components/wifi_provisioning/Kconfig;/home/chris/git/esp-idf/components/wpa_supplicant/Kconfig",
        "COMPONENT_KCONFIGS_PROJBUILD" : "/home/chris/git/esp-idf/components/app_update/Kconfig.projbuild;/home/chris/git/esp-idf/components/bootloader/Kconfig.projbuild;/home/chris/git/esp-idf/components/esp_rom/Kconfig.projbuild;/home/chris/git/esp-idf/components/esptool_py/Kconfig.projbuild;/home/chris/git/esp-idf/components/partition_table/Kconfig.projbuild;/home/chris/git/esp32/esp32_help/main/Kconfig.projbuild"
    },
    "build_components" : [ "aht", "app_trace", "app_update", "asio", "bootloader", "bootloader_support", "bt", "cmock", "coap", "console", "cxx", "driver", "efuse", "esp-tls", "esp32", "esp_adc_cal", "esp_common", "esp_eth", "esp_event", "esp_gdbstub", "esp_hid", "esp_http_client", "esp_http_server", "esp_https_ota", "esp_https_server", "esp_hw_support", "esp_idf_lib_helpers", "esp_lcd", "esp_local_ctrl", "esp_netif", "esp_phy", "esp_pm", "esp_ringbuf", "esp_rom", "esp_serial_slave_link", "esp_system", "esp_timer", "esp_websocket_client", "esp_wifi", "espcoredump", "esptool_py", "expat", "fatfs", "freemodbus", "freertos", "hal", "heap", "i2cdev", "idf_test", "ieee802154", "json", "log", "lwip", "main", "mbedtls", "mdns", "mqtt", "newlib", "nghttp", "nvs_flash", "openssl", "openthread", "partition_table", "perfmon", "protobuf-c", "protocomm", "pthread", "sdmmc", "soc", "spi_flash", "spiffs", "tcp_transport", "tcpip_adapter", "tinyusb", "ulp", "unity", "usb", "vfs", "wear_levelling", "wifi_provisioning", "wpa_supplicant", "xtensa", "" ],
    "build_component_paths" : [ "/home/chris/git/esp-idf/components/aht", "/home/chris/git/esp-idf/components/app_trace", "/home/chris/git/esp-idf/components/app_update", "/home/chris/git/esp-idf/components/asio", "/home/chris/git/esp-idf/components/bootloader", "/home/chris/git/esp-idf/components/bootloader_support", "/home/chris/git/esp-idf/components/bt", "/home/chris/git/esp-idf/components/cmock", "/home/chris/git/esp-idf/components/coap", "/home/chris/git/esp-idf/components/console", "/home/chris/git/esp-idf/components/cxx", "/home/chris/git/esp-idf/components/driver", "/home/chris/git/esp-idf/components/efuse", "/home/chris/git/esp-idf/components/esp-tls", "/home/chris/git/esp-idf/components/esp32", "/home/chris/git/esp-idf/components/esp_adc_cal", "/home/chris/git/esp-idf/components/esp_common", "/home/chris/git/esp-idf/components/esp_eth", "/home/chris/git/esp-idf/components/esp_event", "/home/chris/git/esp-idf/components/esp_gdbstub", "/home/chris/git/esp-idf/components/esp_hid", "/home/chris/git/esp-idf/components/esp_http_client", "/home/chris/git/esp-idf/components/esp_http_server", "/home/chris/git/esp-idf/components/esp_https_ota", "/home/chris/git/esp-idf/components/esp_https_server", "/home/chris/git/esp-idf/components/esp_hw_support", "/home/chris/git/esp-idf/components/esp_idf_lib_helpers", "/home/chris/git/esp-idf/components/esp_lcd", "/home/chris/git/esp-idf/components/esp_local_ctrl", "/home/chris/git/esp-idf/components/esp_netif", "/home/chris/git/esp-idf/components/esp_phy", "/home/chris/git/esp-idf/components/esp_pm", "/home/chris/git/esp-idf/components/esp_ringbuf", "/home/chris/git/esp-idf/components/esp_rom", "/home/chris/git/esp-idf/components/esp_serial_slave_link", "/home/chris/git/esp-idf/components/esp_system", "/home/chris/git/esp-idf/components/esp_timer", "/home/chris/git/esp-idf/components/esp_websocket_client", "/home/chris/git/esp-idf/components/esp_wifi", "/home/chris/git/esp-idf/components/espcoredump", "/home/chris/git/esp-idf/components/esptool_py", "/home/chris/git/esp-idf/components/expat", "/home/chris/git/esp-idf/components/fatfs", "/home/chris/git/esp-idf/components/freemodbus", "/home/chris/git/esp-idf/components/freertos", "/home/chris/git/esp-idf/components/hal", "/home/chris/git/esp-idf/components/heap", "/home/chris/git/esp-idf/components/i2cdev", "/home/chris/git/esp-idf/components/idf_test", "/home/chris/git/esp-idf/components/ieee802154", "/home/chris/git/esp-idf/components/json", "/home/chris/git/esp-idf/components/log", "/home/chris/git/esp-idf/components/lwip", "/home/chris/git/esp32/esp32_help/main", "/home/chris/git/esp-idf/components/mbedtls", "/home/chris/git/esp-idf/components/mdns", "/home/chris/git/esp-idf/components/mqtt", "/home/chris/git/esp-idf/components/newlib", "/home/chris/git/esp-idf/components/nghttp", "/home/chris/git/esp-idf/components/nvs_flash", "/home/chris/git/esp-idf/components/openssl", "/home/chris/git/esp-idf/components/openthread", "/home/chris/git/esp-idf/components/partition_table", "/home/chris/git/esp-idf/components/perfmon", "/home/chris/git/esp-idf/components/protobuf-c", "/home/chris/git/esp-idf/components/protocomm", "/home/chris/git/esp-idf/components/pthread", "/home/chris/git/esp-idf/components/sdmmc", "/home/chris/git/esp-idf/components/soc", "/home/chris/git/esp-idf/components/spi_flash", "/home/chris/git/esp-idf/components/spiffs", "/home/chris/git/esp-idf/components/tcp_transport", "/home/chris/git/esp-idf/components/tcpip_adapter", "/home/chris/git/esp-idf/components/tinyusb", "/home/chris/git/esp-idf/components/ulp", "/home/chris/git/esp-idf/components/unity", "/home/chris/git/esp-idf/components/usb", "/home/chris/git/esp-idf/components/vfs", "/home/chris/git/esp-idf/components/wear_levelling", "/home/chris/git/esp-idf/components/wifi_provisioning", "/home/chris/git/esp-idf/components/wpa_supplicant", "/home/chris/git/esp-idf/components/xtensa", "" ],
    "debug_prefix_map_gdbinit": ""
}
